O0001
N1 G20
N2 (1/2 EM CRB 2FL 1 LOC)
N3 G91 G28 X0 Y0 Z0
N4 T03 M06
N5 S2400 M03

N6 ( Rough Mill1 )
N7 G90 G54 G00 X.125 Y-.125
N8 G43 Z.1 H03 M08
N9 G01 Z-.05 F2.5
N10 G17 X-7.125 F10.
N11 Y3.125
N12 X.125
N13 Y-.125
N14 X-.075 Y.075
N15 X-6.925
N16 Y2.925
N17 X-.075
N18 Y.075
N19 X-.275 Y.275
N20 X-6.725
N21 Y2.0651
N22 X-6.525
N23 Y2.525
N24 X-.475
N25 Y2.0651
N26 G03 X-1.3 Y2.5 I-.825 J-.5651
N27 G01 X-5.7
N28 G03 X-6.525 Y2.0651 I0 J-1.
N29 G01 X-6.725
N30 Y2.725
N31 X-.275
N32 Y.275
N33 X-.475 Y.475
N34 X-6.525
N35 Y.9349
N36 G03 X-5.7 Y.5 I.825 J.5651
N37 G01 X-1.3
N38 G03 X-.475 Y.9349 I0 J1.
N39 G01 Y.475
N40 G00 Z.1
N41 X.125 Y-.125
N42 G01 Z-.05 F2.5
N43 Y3.125 F10.
N44 X-7.125
N45 Y-.125
N46 X.125
N47 G00 Z.1
N48 X-1.3 Y2.5
N49 G01 Z-.05 F2.5
N50 G02 Y.5 I0 J-1. F10.
N51 G01 X-5.7
N52 G02 Y2.5 I0 J1.
N53 G01 X-1.3
N54 G00 Z.1
N55 X.125 Y-.125
N56 Z.05
N57 G01 Z-.1 F2.5
N58 X-7.125 F10.
N59 Y3.125
N60 X.125
N61 Y-.125
N62 X-.075 Y.075
N63 X-6.925
N64 Y2.925
N65 X-.075
N66 Y.075
N67 X-.275 Y.275
N68 X-6.725
N69 Y2.0651
N70 X-6.525
N71 Y2.525
N72 X-.475
N73 Y2.0651
N74 G03 X-1.3 Y2.5 I-.825 J-.5651
N75 G01 X-5.7
N76 G03 X-6.525 Y2.0651 I0 J-1.
N77 G01 X-6.725
N78 Y2.725
N79 X-.275
N80 Y.275
N81 X-.475 Y.475
N82 X-6.525
N83 Y.9349
N84 G03 X-5.7 Y.5 I.825 J.5651
N85 G01 X-1.3
N86 G03 X-.475 Y.9349 I0 J1.
N87 G01 Y.475
N88 G00 Z.1
N89 X.125 Y-.125
N90 Z.05
N91 G01 Z-.1 F2.5
N92 Y3.125 F10.
N93 X-7.125
N94 Y-.125
N95 X.125
N96 G00 Z.1
N97 X-1.3 Y2.5
N98 Z.05
N99 G01 Z-.1 F2.5
N100 G02 Y.5 I0 J-1. F10.
N101 G01 X-5.7
N102 G02 Y2.5 I0 J1.
N103 G01 X-1.3
N104 G00 Z.1
N105 X.125 Y-.125
N106 Z0
N107 G01 Z-.15 F2.5
N108 X-7.125 F10.
N109 Y3.125
N110 X.125
N111 Y-.125
N112 X-.075 Y.075
N113 X-6.925
N114 Y2.925
N115 X-.075
N116 Y.075
N117 X-.275 Y.275
N118 X-6.725
N119 Y2.0651
N120 X-6.525
N121 Y2.525
N122 X-.475
N123 Y2.0651
N124 G03 X-1.3 Y2.5 I-.825 J-.5651
N125 G01 X-5.7
N126 G03 X-6.525 Y2.0651 I0 J-1.
N127 G01 X-6.725
N128 Y2.725
N129 X-.275
N130 Y.275
N131 X-.475 Y.475
N132 X-6.525
N133 Y.9349
N134 G03 X-5.7 Y.5 I.825 J.5651
N135 G01 X-1.3
N136 G03 X-.475 Y.9349 I0 J1.
N137 G01 Y.475
N138 G00 Z.1
N139 X.125 Y-.125
N140 Z0
N141 G01 Z-.15 F2.5
N142 Y3.125 F10.
N143 X-7.125
N144 Y-.125
N145 X.125
N146 G00 Z.1
N147 X-1.3 Y2.5
N148 Z0
N149 G01 Z-.15 F2.5
N150 G02 Y.5 I0 J-1. F10.
N151 G01 X-5.7
N152 G02 Y2.5 I0 J1.
N153 G01 X-1.3
N154 G00 Z.1
N155 X.125 Y-.125
N156 Z-.05
N157 G01 Z-.2 F2.5
N158 X-7.125 F10.
N159 Y3.125
N160 X.125
N161 Y-.125
N162 X-.075 Y.075
N163 X-6.925
N164 Y2.925
N165 X-.075
N166 Y.075
N167 X-.275 Y.275
N168 X-6.725
N169 Y2.0651
N170 X-6.525
N171 Y2.525
N172 X-.475
N173 Y2.0651
N174 G03 X-1.3 Y2.5 I-.825 J-.5651
N175 G01 X-5.7
N176 G03 X-6.525 Y2.0651 I0 J-1.
N177 G01 X-6.725
N178 Y2.725
N179 X-.275
N180 Y.275
N181 X-.475 Y.475
N182 X-6.525
N183 Y.9349
N184 G03 X-5.7 Y.5 I.825 J.5651
N185 G01 X-1.3
N186 G03 X-.475 Y.9349 I0 J1.
N187 G01 Y.475
N188 G00 Z.1
N189 X.125 Y-.125
N190 Z-.05
N191 G01 Z-.2 F2.5
N192 Y3.125 F10.
N193 X-7.125
N194 Y-.125
N195 X.125
N196 G00 Z.1
N197 X-1.3 Y2.5
N198 Z-.05
N199 G01 Z-.2 F2.5
N200 G02 Y.5 I0 J-1. F10.
N201 G01 X-5.7
N202 G02 Y2.5 I0 J1.
N203 G01 X-1.3
N204 G00 Z.1
N205 X.125 Y-.125
N206 Z-.1
N207 G01 Z-.25 F2.5
N208 X-7.125 F10.
N209 Y3.125
N210 X.125
N211 Y-.125
N212 X-.075 Y.075
N213 X-6.925
N214 Y2.925
N215 X-.075
N216 Y.075
N217 X-.275 Y.275
N218 X-6.725
N219 Y2.0651
N220 X-6.525
N221 Y2.525
N222 X-.475
N223 Y2.0651
N224 G03 X-1.3 Y2.5 I-.825 J-.5651
N225 G01 X-5.7
N226 G03 X-6.525 Y2.0651 I0 J-1.
N227 G01 X-6.725
N228 Y2.725
N229 X-.275
N230 Y.275
N231 X-.475 Y.475
N232 X-6.525
N233 Y.9349
N234 G03 X-5.7 Y.5 I.825 J.5651
N235 G01 X-1.3
N236 G03 X-.475 Y.9349 I0 J1.
N237 G01 Y.475
N238 G00 Z.1
N239 X.125 Y-.125
N240 Z-.1
N241 G01 Z-.25 F2.5
N242 Y3.125 F10.
N243 X-7.125
N244 Y-.125
N245 X.125
N246 G00 Z.1
N247 X-1.3 Y2.5
N248 Z-.1
N249 G01 Z-.25 F2.5
N250 G02 Y.5 I0 J-1. F10.
N251 G01 X-5.7
N252 G02 Y2.5 I0 J1.
N253 G01 X-1.3
N254 G00 Z.1
N255 X.125 Y-.125
N256 Z-.15
N257 G01 Z-.3 F2.5
N258 X-7.125 F10.
N259 Y3.125
N260 X.125
N261 Y-.125
N262 X-.075 Y.075
N263 X-6.925
N264 Y2.925
N265 X-.075
N266 Y.075
N267 X-.275 Y.275
N268 X-6.725
N269 Y2.0651
N270 X-6.525
N271 Y2.525
N272 X-.475
N273 Y2.0651
N274 G03 X-1.3 Y2.5 I-.825 J-.5651
N275 G01 X-5.7
N276 G03 X-6.525 Y2.0651 I0 J-1.
N277 G01 X-6.725
N278 Y2.725
N279 X-.275
N280 Y.275
N281 X-.475 Y.475
N282 X-6.525
N283 Y.9349
N284 G03 X-5.7 Y.5 I.825 J.5651
N285 G01 X-1.3
N286 G03 X-.475 Y.9349 I0 J1.
N287 G01 Y.475
N288 G00 Z.1
N289 X.125 Y-.125
N290 Z-.15
N291 G01 Z-.3 F2.5
N292 Y3.125 F10.
N293 X-7.125
N294 Y-.125
N295 X.125
N296 G00 Z.1
N297 X-1.3 Y2.5
N298 Z-.15
N299 G01 Z-.3 F2.5
N300 G02 Y.5 I0 J-1. F10.
N301 G01 X-5.7
N302 G02 Y2.5 I0 J1.
N303 G01 X-1.3
N304 G00 Z.1
N305 X.125 Y-.125
N306 Z-.2
N307 G01 Z-.35 F2.5
N308 X-7.125 F10.
N309 Y3.125
N310 X.125
N311 Y-.125
N312 X-.075 Y.075
N313 X-6.925
N314 Y2.925
N315 X-.075
N316 Y.075
N317 X-.275 Y.275
N318 X-6.725
N319 Y2.0651
N320 X-6.525
N321 Y2.525
N322 X-.475
N323 Y2.0651
N324 G03 X-1.3 Y2.5 I-.825 J-.5651
N325 G01 X-5.7
N326 G03 X-6.525 Y2.0651 I0 J-1.
N327 G01 X-6.725
N328 Y2.725
N329 X-.275
N330 Y.275
N331 X-.475 Y.475
N332 X-6.525
N333 Y.9349
N334 G03 X-5.7 Y.5 I.825 J.5651
N335 G01 X-1.3
N336 G03 X-.475 Y.9349 I0 J1.
N337 G01 Y.475
N338 G00 Z.1
N339 X.125 Y-.125
N340 Z-.2
N341 G01 Z-.35 F2.5
N342 Y3.125 F10.
N343 X-7.125
N344 Y-.125
N345 X.125
N346 G00 Z.1
N347 X-1.3 Y2.5
N348 Z-.2
N349 G01 Z-.35 F2.5
N350 G02 Y.5 I0 J-1. F10.
N351 G01 X-5.7
N352 G02 Y2.5 I0 J1.
N353 G01 X-1.3
N354 G00 Z.1
N355 X.125 Y-.125
N356 Z-.25
N357 G01 Z-.4 F2.5
N358 X-7.125 F10.
N359 Y3.125
N360 X.125
N361 Y-.125
N362 X-.075 Y.075
N363 X-6.925
N364 Y2.925
N365 X-.075
N366 Y.075
N367 X-.275 Y.275
N368 X-6.725
N369 Y2.0651
N370 X-6.525
N371 Y2.525
N372 X-.475
N373 Y2.0651
N374 G03 X-1.3 Y2.5 I-.825 J-.5651
N375 G01 X-5.7
N376 G03 X-6.525 Y2.0651 I0 J-1.
N377 G01 X-6.725
N378 Y2.725
N379 X-.275
N380 Y.275
N381 X-.475 Y.475
N382 X-6.525
N383 Y.9349
N384 G03 X-5.7 Y.5 I.825 J.5651
N385 G01 X-1.3
N386 G03 X-.475 Y.9349 I0 J1.
N387 G01 Y.475
N388 G00 Z.1
N389 X.125 Y-.125
N390 Z-.25
N391 G01 Z-.4 F2.5
N392 Y3.125 F10.
N393 X-7.125
N394 Y-.125
N395 X.125
N396 G00 Z.1
N397 X-1.3 Y2.5
N398 Z-.25
N399 G01 Z-.4 F2.5
N400 G02 Y.5 I0 J-1. F10.
N401 G01 X-5.7
N402 G02 Y2.5 I0 J1.
N403 G01 X-1.3
N404 G00 Z.1
N405 X.125 Y-.125
N406 Z-.3
N407 G01 Z-.45 F2.5
N408 X-7.125 F10.
N409 Y3.125
N410 X.125
N411 Y-.125
N412 X-.075 Y.075
N413 X-6.925
N414 Y2.925
N415 X-.075
N416 Y.075
N417 X-.275 Y.275
N418 X-6.725
N419 Y2.0651
N420 X-6.525
N421 Y2.525
N422 X-.475
N423 Y2.0651
N424 G03 X-1.3 Y2.5 I-.825 J-.5651
N425 G01 X-5.7
N426 G03 X-6.525 Y2.0651 I0 J-1.
N427 G01 X-6.725
N428 Y2.725
N429 X-.275
N430 Y.275
N431 X-.475 Y.475
N432 X-6.525
N433 Y.9349
N434 G03 X-5.7 Y.5 I.825 J.5651
N435 G01 X-1.3
N436 G03 X-.475 Y.9349 I0 J1.
N437 G01 Y.475
N438 G00 Z.1
N439 X.125 Y-.125
N440 Z-.3
N441 G01 Z-.45 F2.5
N442 Y3.125 F10.
N443 X-7.125
N444 Y-.125
N445 X.125
N446 G00 Z.1
N447 X-1.3 Y2.5
N448 Z-.3
N449 G01 Z-.45 F2.5
N450 G02 Y.5 I0 J-1. F10.
N451 G01 X-5.7
N452 G02 Y2.5 I0 J1.
N453 G01 X-1.3
N454 G00 Z.1
N455 X.125 Y-.125
N456 Z-.35
N457 G01 Z-.5 F2.5
N458 X-7.125 F10.
N459 Y3.125
N460 X.125
N461 Y-.125
N462 X-.075 Y.075
N463 X-6.925
N464 Y2.925
N465 X-.075
N466 Y.075
N467 X-.275 Y.275
N468 X-6.725
N469 Y2.0651
N470 X-6.525
N471 Y2.525
N472 X-.475
N473 Y2.0651
N474 G03 X-1.3 Y2.5 I-.825 J-.5651
N475 G01 X-5.7
N476 G03 X-6.525 Y2.0651 I0 J-1.
N477 G01 X-6.725
N478 Y2.725
N479 X-.275
N480 Y.275
N481 X-.475 Y.475
N482 X-6.525
N483 Y.9349
N484 G03 X-5.7 Y.5 I.825 J.5651
N485 G01 X-1.3
N486 G03 X-.475 Y.9349 I0 J1.
N487 G01 Y.475
N488 G00 Z.1
N489 X.125 Y-.125
N490 Z-.35
N491 G01 Z-.5 F2.5
N492 Y3.125 F10.
N493 X-7.125
N494 Y-.125
N495 X.125
N496 G00 Z.1
N497 X-1.3 Y2.5
N498 Z-.35
N499 G01 Z-.5 F2.5
N500 G02 Y.5 I0 J-1. F10.
N501 G01 X-5.7
N502 G02 Y2.5 I0 J1.
N503 G01 X-1.3
N504 G00 Z.1
N505 X.125 Y-.125
N506 Z-.4
N507 G01 Z-.55 F2.5
N508 X-7.125 F10.
N509 Y3.125
N510 X.125
N511 Y-.125
N512 X-.075 Y.075
N513 X-6.925
N514 Y2.925
N515 X-.075
N516 Y.075
N517 X-.275 Y.275
N518 X-6.725
N519 Y2.0651
N520 X-6.525
N521 Y2.525
N522 X-.475
N523 Y2.0651
N524 G03 X-1.3 Y2.5 I-.825 J-.5651
N525 G01 X-5.7
N526 G03 X-6.525 Y2.0651 I0 J-1.
N527 G01 X-6.725
N528 Y2.725
N529 X-.275
N530 Y.275
N531 X-.475 Y.475
N532 X-6.525
N533 Y.9349
N534 G03 X-5.7 Y.5 I.825 J.5651
N535 G01 X-1.3
N536 G03 X-.475 Y.9349 I0 J1.
N537 G01 Y.475
N538 G00 Z.1
N539 X.125 Y-.125
N540 Z-.4
N541 G01 Z-.55 F2.5
N542 Y3.125 F10.
N543 X-7.125
N544 Y-.125
N545 X.125
N546 G00 Z.1
N547 X-1.3 Y2.5
N548 Z-.4
N549 G01 Z-.55 F2.5
N550 G02 Y.5 I0 J-1. F10.
N551 G01 X-5.7
N552 G02 Y2.5 I0 J1.
N553 G01 X-1.3
N554 G00 Z.1
N555 X.125 Y-.125
N556 Z-.45
N557 G01 Z-.6 F2.5
N558 X-7.125 F10.
N559 Y3.125
N560 X.125
N561 Y-.125
N562 X-.075 Y.075
N563 X-6.925
N564 Y2.925
N565 X-.075
N566 Y.075
N567 X-.275 Y.275
N568 X-6.725
N569 Y2.0651
N570 X-6.525
N571 Y2.525
N572 X-.475
N573 Y2.0651
N574 G03 X-1.3 Y2.5 I-.825 J-.5651
N575 G01 X-5.7
N576 G03 X-6.525 Y2.0651 I0 J-1.
N577 G01 X-6.725
N578 Y2.725
N579 X-.275
N580 Y.275
N581 X-.475 Y.475
N582 X-6.525
N583 Y.9349
N584 G03 X-5.7 Y.5 I.825 J.5651
N585 G01 X-1.3
N586 G03 X-.475 Y.9349 I0 J1.
N587 G01 Y.475
N588 G00 Z.1
N589 X.125 Y-.125
N590 Z-.45
N591 G01 Z-.6 F2.5
N592 Y3.125 F10.
N593 X-7.125
N594 Y-.125
N595 X.125
N596 G00 Z.1
N597 X-1.3 Y2.5
N598 Z-.45
N599 G01 Z-.6 F2.5
N600 G02 Y.5 I0 J-1. F10.
N601 G01 X-5.7
N602 G02 Y2.5 I0 J1.
N603 G01 X-1.3
N604 G00 Z.1
N605 X.125 Y-.125
N606 Z-.5
N607 G01 Z-.65 F2.5
N608 X-7.125 F10.
N609 Y3.125
N610 X.125
N611 Y-.125
N612 X-.075 Y.075
N613 X-6.925
N614 Y2.925
N615 X-.075
N616 Y.075
N617 X-.275 Y.275
N618 X-6.725
N619 Y2.0651
N620 X-6.525
N621 Y2.525
N622 X-.475
N623 Y2.0651
N624 G03 X-1.3 Y2.5 I-.825 J-.5651
N625 G01 X-5.7
N626 G03 X-6.525 Y2.0651 I0 J-1.
N627 G01 X-6.725
N628 Y2.725
N629 X-.275
N630 Y.275
N631 X-.475 Y.475
N632 X-6.525
N633 Y.9349
N634 G03 X-5.7 Y.5 I.825 J.5651
N635 G01 X-1.3
N636 G03 X-.475 Y.9349 I0 J1.
N637 G01 Y.475
N638 G00 Z.1
N639 X.125 Y-.125
N640 Z-.5
N641 G01 Z-.65 F2.5
N642 Y3.125 F10.
N643 X-7.125
N644 Y-.125
N645 X.125
N646 G00 Z.1
N647 X-1.3 Y2.5
N648 Z-.5
N649 G01 Z-.65 F2.5
N650 G02 Y.5 I0 J-1. F10.
N651 G01 X-5.7
N652 G02 Y2.5 I0 J1.
N653 G01 X-1.3
N654 G00 Z.1
N655 X.125 Y-.125
N656 Z-.55
N657 G01 Z-.7 F2.5
N658 X-7.125 F10.
N659 Y3.125
N660 X.125
N661 Y-.125
N662 X-.075 Y.075
N663 X-6.925
N664 Y2.925
N665 X-.075
N666 Y.075
N667 X-.275 Y.275
N668 X-6.725
N669 Y2.0651
N670 X-6.525
N671 Y2.525
N672 X-.475
N673 Y2.0651
N674 G03 X-1.3 Y2.5 I-.825 J-.5651
N675 G01 X-5.7
N676 G03 X-6.525 Y2.0651 I0 J-1.
N677 G01 X-6.725
N678 Y2.725
N679 X-.275
N680 Y.275
N681 X-.475 Y.475
N682 X-6.525
N683 Y.9349
N684 G03 X-5.7 Y.5 I.825 J.5651
N685 G01 X-1.3
N686 G03 X-.475 Y.9349 I0 J1.
N687 G01 Y.475
N688 G00 Z.1
N689 X.125 Y-.125
N690 Z-.55
N691 G01 Z-.7 F2.5
N692 Y3.125 F10.
N693 X-7.125
N694 Y-.125
N695 X.125
N696 G00 Z.1
N697 X-1.3 Y2.5
N698 Z-.55
N699 G01 Z-.7 F2.5
N700 G02 Y.5 I0 J-1. F10.
N701 G01 X-5.7
N702 G02 Y2.5 I0 J1.
N703 G01 X-1.3
N704 G00 Z.1
N705 X.125 Y-.125
N706 Z-.6
N707 G01 Z-.75 F2.5
N708 X-7.125 F10.
N709 Y3.125
N710 X.125
N711 Y-.125
N712 X-.075 Y.075
N713 X-6.925
N714 Y2.925
N715 X-.075
N716 Y.075
N717 X-.275 Y.275
N718 X-6.725
N719 Y2.0651
N720 X-6.525
N721 Y2.525
N722 X-.475
N723 Y2.0651
N724 G03 X-1.3 Y2.5 I-.825 J-.5651
N725 G01 X-5.7
N726 G03 X-6.525 Y2.0651 I0 J-1.
N727 G01 X-6.725
N728 Y2.725
N729 X-.275
N730 Y.275
N731 X-.475 Y.475
N732 X-6.525
N733 Y.9349
N734 G03 X-5.7 Y.5 I.825 J.5651
N735 G01 X-1.3
N736 G03 X-.475 Y.9349 I0 J1.
N737 G01 Y.475
N738 G00 Z.1
N739 X.125 Y-.125
N740 Z-.6
N741 G01 Z-.75 F2.5
N742 Y3.125 F10.
N743 X-7.125
N744 Y-.125
N745 X.125
N746 G00 Z.1
N747 X-1.3 Y2.5
N748 Z-.6
N749 G01 Z-.75 F2.5
N750 G02 Y.5 I0 J-1. F10.
N751 G01 X-5.7
N752 G02 Y2.5 I0 J1.
N753 G01 X-1.3
N754 G00 Z.1
N755 X.125 Y-.125
N756 Z-.65
N757 G01 Z-.8 F2.5
N758 X-7.125 F10.
N759 Y3.125
N760 X.125
N761 Y-.125
N762 X-.075 Y.075
N763 X-6.925
N764 Y2.925
N765 X-.075
N766 Y.075
N767 X-.275 Y.275
N768 X-6.725
N769 Y2.0651
N770 X-6.525
N771 Y2.525
N772 X-.475
N773 Y2.0651
N774 G03 X-1.3 Y2.5 I-.825 J-.5651
N775 G01 X-5.7
N776 G03 X-6.525 Y2.0651 I0 J-1.
N777 G01 X-6.725
N778 Y2.725
N779 X-.275
N780 Y.275
N781 X-.475 Y.475
N782 X-6.525
N783 Y.9349
N784 G03 X-5.7 Y.5 I.825 J.5651
N785 G01 X-1.3
N786 G03 X-.475 Y.9349 I0 J1.
N787 G01 Y.475
N788 G00 Z.1
N789 X.125 Y-.125
N790 Z-.65
N791 G01 Z-.8 F2.5
N792 Y3.125 F10.
N793 X-7.125
N794 Y-.125
N795 X.125
N796 G00 Z.1
N797 X-1.3 Y2.5
N798 Z-.65
N799 G01 Z-.8 F2.5
N800 G02 Y.5 I0 J-1. F10.
N801 G01 X-5.7
N802 G02 Y2.5 I0 J1.
N803 G01 X-1.3
N804 G00 Z.1
N805 X.125 Y-.125
N806 Z-.7
N807 G01 Z-.85 F2.5
N808 X-7.125 F10.
N809 Y3.125
N810 X.125
N811 Y-.125
N812 X-.075 Y.075
N813 X-6.925
N814 Y2.925
N815 X-.075
N816 Y.075
N817 X-.275 Y.275
N818 X-6.725
N819 Y2.0651
N820 X-6.525
N821 Y2.525
N822 X-.475
N823 Y2.0651
N824 G03 X-1.3 Y2.5 I-.825 J-.5651
N825 G01 X-5.7
N826 G03 X-6.525 Y2.0651 I0 J-1.
N827 G01 X-6.725
N828 Y2.725
N829 X-.275
N830 Y.275
N831 X-.475 Y.475
N832 X-6.525
N833 Y.9349
N834 G03 X-5.7 Y.5 I.825 J.5651
N835 G01 X-1.3
N836 G03 X-.475 Y.9349 I0 J1.
N837 G01 Y.475
N838 G00 Z.1
N839 X.125 Y-.125
N840 Z-.7
N841 G01 Z-.85 F2.5
N842 Y3.125 F10.
N843 X-7.125
N844 Y-.125
N845 X.125
N846 G00 Z.1
N847 X-1.3 Y2.5
N848 Z-.7
N849 G01 Z-.85 F2.5
N850 G02 Y.5 I0 J-1. F10.
N851 G01 X-5.7
N852 G02 Y2.5 I0 J1.
N853 G01 X-1.3
N854 G00 Z.1
N855 X.125 Y-.125
N856 Z-.75
N857 G01 Z-.9 F2.5
N858 X-7.125 F10.
N859 Y3.125
N860 X.125
N861 Y-.125
N862 X-.075 Y.075
N863 X-6.925
N864 Y2.925
N865 X-.075
N866 Y.075
N867 X-.275 Y.275
N868 X-6.725
N869 Y2.0651
N870 X-6.525
N871 Y2.525
N872 X-.475
N873 Y2.0651
N874 G03 X-1.3 Y2.5 I-.825 J-.5651
N875 G01 X-5.7
N876 G03 X-6.525 Y2.0651 I0 J-1.
N877 G01 X-6.725
N878 Y2.725
N879 X-.275
N880 Y.275
N881 X-.475 Y.475
N882 X-6.525
N883 Y.9349
N884 G03 X-5.7 Y.5 I.825 J.5651
N885 G01 X-1.3
N886 G03 X-.475 Y.9349 I0 J1.
N887 G01 Y.475
N888 G00 Z.1
N889 X.125 Y-.125
N890 Z-.75
N891 G01 Z-.9 F2.5
N892 Y3.125 F10.
N893 X-7.125
N894 Y-.125
N895 X.125
N896 G00 Z.1
N897 X-1.3 Y2.5
N898 Z-.75
N899 G01 Z-.9 F2.5
N900 G02 Y.5 I0 J-1. F10.
N901 G01 X-5.7
N902 G02 Y2.5 I0 J1.
N903 G01 X-1.3
N904 G00 Z.1
N905 X.125 Y-.125
N906 Z-.8
N907 G01 Z-.95 F2.5
N908 X-7.125 F10.
N909 Y3.125
N910 X.125
N911 Y-.125
N912 X-.075 Y.075
N913 X-6.925
N914 Y2.925
N915 X-.075
N916 Y.075
N917 X-.275 Y.275
N918 X-6.725
N919 Y2.0651
N920 X-6.525
N921 Y2.525
N922 X-.475
N923 Y2.0651
N924 G03 X-1.3 Y2.5 I-.825 J-.5651
N925 G01 X-5.7
N926 G03 X-6.525 Y2.0651 I0 J-1.
N927 G01 X-6.725
N928 Y2.725
N929 X-.275
N930 Y.275
N931 X-.475 Y.475
N932 X-6.525
N933 Y.9349
N934 G03 X-5.7 Y.5 I.825 J.5651
N935 G01 X-1.3
N936 G03 X-.475 Y.9349 I0 J1.
N937 G01 Y.475
N938 G00 Z.1
N939 X.125 Y-.125
N940 Z-.8
N941 G01 Z-.95 F2.5
N942 Y3.125 F10.
N943 X-7.125
N944 Y-.125
N945 X.125
N946 G00 Z.1
N947 X-1.3 Y2.5
N948 Z-.8
N949 G01 Z-.95 F2.5
N950 G02 Y.5 I0 J-1. F10.
N951 G01 X-5.7
N952 G02 Y2.5 I0 J1.
N953 G01 X-1.3
N954 G00 Z.1
N955 X.125 Y-.125
N956 Z-.85
N957 G01 Z-1. F2.5
N958 X-7.125 F10.
N959 Y3.125
N960 X.125
N961 Y-.125
N962 X-.075 Y.075
N963 X-6.925
N964 Y2.925
N965 X-.075
N966 Y.075
N967 X-.275 Y.275
N968 X-6.725
N969 Y2.0651
N970 X-6.525
N971 Y2.525
N972 X-.475
N973 Y2.0651
N974 G03 X-1.3 Y2.5 I-.825 J-.5651
N975 G01 X-5.7
N976 G03 X-6.525 Y2.0651 I0 J-1.
N977 G01 X-6.725
N978 Y2.725
N979 X-.275
N980 Y.275
N981 X-.475 Y.475
N982 X-6.525
N983 Y.9349
N984 G03 X-5.7 Y.5 I.825 J.5651
N985 G01 X-1.3
N986 G03 X-.475 Y.9349 I0 J1.
N987 G01 Y.475
N988 G00 Z.1
N989 X.125 Y-.125
N990 Z-.85
N991 G01 Z-1. F2.5
N992 Y3.125 F10.
N993 X-7.125
N994 Y-.125
N995 X.125
N996 G00 Z.1
N997 X-1.3 Y2.5
N998 Z-.85
N999 G01 Z-1. F2.5
N1000 G02 Y.5 I0 J-1. F10.
N1001 G01 X-5.7
N1002 G02 Y2.5 I0 J1.
N1003 G01 X-1.3
N1004 G00 Z.1
N1005 Z1.

N1006 ( Rough Mill2 )
N1007 X-5.7 Y1.55
N1008 Z.1
N1009 G01 Z-.05 F2.5
N1010 G03 Y1.45 I0 J-.05 F10.
N1011 G01 X-1.3
N1012 G03 Y1.55 I0 J.05
N1013 G01 X-5.7
N1014 Y1.75
N1015 G03 Y1.25 I0 J-.25
N1016 G01 X-1.3
N1017 G03 Y1.75 I0 J.25
N1018 G01 X-5.7
N1019 G03 Y1.25 I0 J-.25
N1020 G01 X-1.3
N1021 G03 Y1.75 I0 J.25
N1022 G01 X-5.7
N1023 G00 Z.1
N1024 Y1.55
N1025 Z.05
N1026 G01 Z-.1 F2.5
N1027 G03 Y1.45 I0 J-.05 F10.
N1028 G01 X-1.3
N1029 G03 Y1.55 I0 J.05
N1030 G01 X-5.7
N1031 Y1.75
N1032 G03 Y1.25 I0 J-.25
N1033 G01 X-1.3
N1034 G03 Y1.75 I0 J.25
N1035 G01 X-5.7
N1036 G03 Y1.25 I0 J-.25
N1037 G01 X-1.3
N1038 G03 Y1.75 I0 J.25
N1039 G01 X-5.7
N1040 G00 Z.1
N1041 Y1.55
N1042 Z0
N1043 G01 Z-.15 F2.5
N1044 G03 Y1.45 I0 J-.05 F10.
N1045 G01 X-1.3
N1046 G03 Y1.55 I0 J.05
N1047 G01 X-5.7
N1048 Y1.75
N1049 G03 Y1.25 I0 J-.25
N1050 G01 X-1.3
N1051 G03 Y1.75 I0 J.25
N1052 G01 X-5.7
N1053 G03 Y1.25 I0 J-.25
N1054 G01 X-1.3
N1055 G03 Y1.75 I0 J.25
N1056 G01 X-5.7
N1057 G00 Z.1
N1058 Y1.55
N1059 Z-.05
N1060 G01 Z-.2 F2.5
N1061 G03 Y1.45 I0 J-.05 F10.
N1062 G01 X-1.3
N1063 G03 Y1.55 I0 J.05
N1064 G01 X-5.7
N1065 Y1.75
N1066 G03 Y1.25 I0 J-.25
N1067 G01 X-1.3
N1068 G03 Y1.75 I0 J.25
N1069 G01 X-5.7
N1070 G03 Y1.25 I0 J-.25
N1071 G01 X-1.3
N1072 G03 Y1.75 I0 J.25
N1073 G01 X-5.7
N1074 G00 Z.1
N1075 Y1.55
N1076 Z-.1
N1077 G01 Z-.25 F2.5
N1078 G03 Y1.45 I0 J-.05 F10.
N1079 G01 X-1.3
N1080 G03 Y1.55 I0 J.05
N1081 G01 X-5.7
N1082 Y1.75
N1083 G03 Y1.25 I0 J-.25
N1084 G01 X-1.3
N1085 G03 Y1.75 I0 J.25
N1086 G01 X-5.7
N1087 G03 Y1.25 I0 J-.25
N1088 G01 X-1.3
N1089 G03 Y1.75 I0 J.25
N1090 G01 X-5.7
N1091 G00 Z.1
N1092 Y1.55
N1093 Z-.15
N1094 G01 Z-.3 F2.5
N1095 G03 Y1.45 I0 J-.05 F10.
N1096 G01 X-1.3
N1097 G03 Y1.55 I0 J.05
N1098 G01 X-5.7
N1099 Y1.75
N1100 G03 Y1.25 I0 J-.25
N1101 G01 X-1.3
N1102 G03 Y1.75 I0 J.25
N1103 G01 X-5.7
N1104 G03 Y1.25 I0 J-.25
N1105 G01 X-1.3
N1106 G03 Y1.75 I0 J.25
N1107 G01 X-5.7
N1108 G00 Z.1
N1109 Y1.55
N1110 Z-.2
N1111 G01 Z-.35 F2.5
N1112 G03 Y1.45 I0 J-.05 F10.
N1113 G01 X-1.3
N1114 G03 Y1.55 I0 J.05
N1115 G01 X-5.7
N1116 Y1.75
N1117 G03 Y1.25 I0 J-.25
N1118 G01 X-1.3
N1119 G03 Y1.75 I0 J.25
N1120 G01 X-5.7
N1121 G03 Y1.25 I0 J-.25
N1122 G01 X-1.3
N1123 G03 Y1.75 I0 J.25
N1124 G01 X-5.7
N1125 G00 Z.1
N1126 Y1.55
N1127 Z-.25
N1128 G01 Z-.4 F2.5
N1129 G03 Y1.45 I0 J-.05 F10.
N1130 G01 X-1.3
N1131 G03 Y1.55 I0 J.05
N1132 G01 X-5.7
N1133 Y1.75
N1134 G03 Y1.25 I0 J-.25
N1135 G01 X-1.3
N1136 G03 Y1.75 I0 J.25
N1137 G01 X-5.7
N1138 G03 Y1.25 I0 J-.25
N1139 G01 X-1.3
N1140 G03 Y1.75 I0 J.25
N1141 G01 X-5.7
N1142 G00 Z.1
N1143 Y1.55
N1144 Z-.3
N1145 G01 Z-.45 F2.5
N1146 G03 Y1.45 I0 J-.05 F10.
N1147 G01 X-1.3
N1148 G03 Y1.55 I0 J.05
N1149 G01 X-5.7
N1150 Y1.75
N1151 G03 Y1.25 I0 J-.25
N1152 G01 X-1.3
N1153 G03 Y1.75 I0 J.25
N1154 G01 X-5.7
N1155 G03 Y1.25 I0 J-.25
N1156 G01 X-1.3
N1157 G03 Y1.75 I0 J.25
N1158 G01 X-5.7
N1159 G00 Z.1
N1160 Y1.55
N1161 Z-.35
N1162 G01 Z-.5 F2.5
N1163 G03 Y1.45 I0 J-.05 F10.
N1164 G01 X-1.3
N1165 G03 Y1.55 I0 J.05
N1166 G01 X-5.7
N1167 Y1.75
N1168 G03 Y1.25 I0 J-.25
N1169 G01 X-1.3
N1170 G03 Y1.75 I0 J.25
N1171 G01 X-5.7
N1172 G03 Y1.25 I0 J-.25
N1173 G01 X-1.3
N1174 G03 Y1.75 I0 J.25
N1175 G01 X-5.7
N1176 G00 Z.1
N1177 Y1.55
N1178 Z-.4
N1179 G01 Z-.55 F2.5
N1180 G03 Y1.45 I0 J-.05 F10.
N1181 G01 X-1.3
N1182 G03 Y1.55 I0 J.05
N1183 G01 X-5.7
N1184 Y1.75
N1185 G03 Y1.25 I0 J-.25
N1186 G01 X-1.3
N1187 G03 Y1.75 I0 J.25
N1188 G01 X-5.7
N1189 G03 Y1.25 I0 J-.25
N1190 G01 X-1.3
N1191 G03 Y1.75 I0 J.25
N1192 G01 X-5.7
N1193 G00 Z.1
N1194 Y1.55
N1195 Z-.45
N1196 G01 Z-.6 F2.5
N1197 G03 Y1.45 I0 J-.05 F10.
N1198 G01 X-1.3
N1199 G03 Y1.55 I0 J.05
N1200 G01 X-5.7
N1201 Y1.75
N1202 G03 Y1.25 I0 J-.25
N1203 G01 X-1.3
N1204 G03 Y1.75 I0 J.25
N1205 G01 X-5.7
N1206 G03 Y1.25 I0 J-.25
N1207 G01 X-1.3
N1208 G03 Y1.75 I0 J.25
N1209 G01 X-5.7
N1210 G00 Z.1
N1211 Y1.55
N1212 Z-.5
N1213 G01 Z-.65 F2.5
N1214 G03 Y1.45 I0 J-.05 F10.
N1215 G01 X-1.3
N1216 G03 Y1.55 I0 J.05
N1217 G01 X-5.7
N1218 Y1.75
N1219 G03 Y1.25 I0 J-.25
N1220 G01 X-1.3
N1221 G03 Y1.75 I0 J.25
N1222 G01 X-5.7
N1223 G03 Y1.25 I0 J-.25
N1224 G01 X-1.3
N1225 G03 Y1.75 I0 J.25
N1226 G01 X-5.7
N1227 G00 Z.1
N1228 Y1.55
N1229 Z-.55
N1230 G01 Z-.7 F2.5
N1231 G03 Y1.45 I0 J-.05 F10.
N1232 G01 X-1.3
N1233 G03 Y1.55 I0 J.05
N1234 G01 X-5.7
N1235 Y1.75
N1236 G03 Y1.25 I0 J-.25
N1237 G01 X-1.3
N1238 G03 Y1.75 I0 J.25
N1239 G01 X-5.7
N1240 G03 Y1.25 I0 J-.25
N1241 G01 X-1.3
N1242 G03 Y1.75 I0 J.25
N1243 G01 X-5.7
N1244 G00 Z.1
N1245 Y1.55
N1246 Z-.6
N1247 G01 Z-.75 F2.5
N1248 G03 Y1.45 I0 J-.05 F10.
N1249 G01 X-1.3
N1250 G03 Y1.55 I0 J.05
N1251 G01 X-5.7
N1252 Y1.75
N1253 G03 Y1.25 I0 J-.25
N1254 G01 X-1.3
N1255 G03 Y1.75 I0 J.25
N1256 G01 X-5.7
N1257 G03 Y1.25 I0 J-.25
N1258 G01 X-1.3
N1259 G03 Y1.75 I0 J.25
N1260 G01 X-5.7
N1261 G00 Z.1
N1262 Y1.55
N1263 Z-.65
N1264 G01 Z-.8 F2.5
N1265 G03 Y1.45 I0 J-.05 F10.
N1266 G01 X-1.3
N1267 G03 Y1.55 I0 J.05
N1268 G01 X-5.7
N1269 Y1.75
N1270 G03 Y1.25 I0 J-.25
N1271 G01 X-1.3
N1272 G03 Y1.75 I0 J.25
N1273 G01 X-5.7
N1274 G03 Y1.25 I0 J-.25
N1275 G01 X-1.3
N1276 G03 Y1.75 I0 J.25
N1277 G01 X-5.7
N1278 G00 Z.1
N1279 Y1.55
N1280 Z-.7
N1281 G01 Z-.85 F2.5
N1282 G03 Y1.45 I0 J-.05 F10.
N1283 G01 X-1.3
N1284 G03 Y1.55 I0 J.05
N1285 G01 X-5.7
N1286 Y1.75
N1287 G03 Y1.25 I0 J-.25
N1288 G01 X-1.3
N1289 G03 Y1.75 I0 J.25
N1290 G01 X-5.7
N1291 G03 Y1.25 I0 J-.25
N1292 G01 X-1.3
N1293 G03 Y1.75 I0 J.25
N1294 G01 X-5.7
N1295 G00 Z.1
N1296 Y1.55
N1297 Z-.75
N1298 G01 Z-.9 F2.5
N1299 G03 Y1.45 I0 J-.05 F10.
N1300 G01 X-1.3
N1301 G03 Y1.55 I0 J.05
N1302 G01 X-5.7
N1303 Y1.75
N1304 G03 Y1.25 I0 J-.25
N1305 G01 X-1.3
N1306 G03 Y1.75 I0 J.25
N1307 G01 X-5.7
N1308 G03 Y1.25 I0 J-.25
N1309 G01 X-1.3
N1310 G03 Y1.75 I0 J.25
N1311 G01 X-5.7
N1312 G00 Z.1
N1313 Y1.55
N1314 Z-.8
N1315 G01 Z-.95 F2.5
N1316 G03 Y1.45 I0 J-.05 F10.
N1317 G01 X-1.3
N1318 G03 Y1.55 I0 J.05
N1319 G01 X-5.7
N1320 Y1.75
N1321 G03 Y1.25 I0 J-.25
N1322 G01 X-1.3
N1323 G03 Y1.75 I0 J.25
N1324 G01 X-5.7
N1325 G03 Y1.25 I0 J-.25
N1326 G01 X-1.3
N1327 G03 Y1.75 I0 J.25
N1328 G01 X-5.7
N1329 G00 Z.1
N1330 Y1.55
N1331 Z-.85
N1332 G01 Z-1. F2.5
N1333 G03 Y1.45 I0 J-.05 F10.
N1334 G01 X-1.3
N1335 G03 Y1.55 I0 J.05
N1336 G01 X-5.7
N1337 Y1.75
N1338 G03 Y1.25 I0 J-.25
N1339 G01 X-1.3
N1340 G03 Y1.75 I0 J.25
N1341 G01 X-5.7
N1342 G03 Y1.25 I0 J-.25
N1343 G01 X-1.3
N1344 G03 Y1.75 I0 J.25
N1345 G01 X-5.7
N1346 G00 Z.1
N1347 Z1. M09
N1348 G91 G28 Z0
N1349 G28 X0 Y0
N1350 M30
